King County Housing Price Analysis – Xindi Shan
…
data=read.csv("kc_house_data.csv")
attach(data)

rows <- sample(1:21613, 200, replace=FALSE)
data_fr <- data[rows,]
data1 <- na.omit(data_fr)
data <- data1 %>%
  group_by(price) %>%
  select(price, grade, yr_built, sqft_living) %>%
  arrange(desc(price))

data

# A tibble: 200 × 4
# Groups:   price [169]
     price grade yr_built sqft_living
     <dbl> <int>    <int>       <int>
 1 2700000    11     2005        5305
 2 1965220    10     2003        4370
 3 1959000    11     1988        6200
 4 1735000    10     1929        4870
 5 1490000    12     1990        4560
 6 1295000    10     1968        3490
 7 1050000     8     1927        2250
 8 1045000     9     1996        3560
 9 1025000    10     1977        3320
10 1000000     9     1996        2044
# ℹ 190 more rows
…
